<?xml version="1.0" encoding="UTF-8" standalone="no"?>
<!-- Created with Inkscape (http://www.inkscape.org/) -->

<svg
   width="132.29167mm"
   height="132.29167mm"
   viewBox="0 0 132.29167 132.29167"
   version="1.1"
   id="svg5"
   inkscape:version="1.2.1 (9c6d41e410, 2022-07-14)"
   sodipodi:docname="CancelOrderButton.svg"
   xmlns:inkscape="http://www.inkscape.org/namespaces/inkscape"
   xmlns:sodipodi="http://sodipodi.sourceforge.net/DTD/sodipodi-0.dtd"
   xmlns="http://www.w3.org/2000/svg"
   xmlns:svg="http://www.w3.org/2000/svg">
  <sodipodi:namedview
     id="namedview7"
     pagecolor="#ffffff"
     bordercolor="#666666"
     borderopacity="1.0"
     inkscape:pageshadow="2"
     inkscape:pageopacity="0.0"
     inkscape:pagecheckerboard="0"
     inkscape:document-units="mm"
     showgrid="false"
     inkscape:snap-bbox="true"
     inkscape:bbox-paths="true"
     inkscape:bbox-nodes="true"
     inkscape:snap-bbox-edge-midpoints="true"
     inkscape:snap-bbox-midpoints="true"
     inkscape:snap-intersection-paths="true"
     inkscape:object-paths="true"
     inkscape:snap-smooth-nodes="true"
     inkscape:snap-midpoints="true"
     inkscape:snap-center="true"
     inkscape:snap-object-midpoints="true"
     inkscape:zoom="0.32026165"
     inkscape:cx="-1003.8667"
     inkscape:cy="955.46876"
     inkscape:window-width="1920"
     inkscape:window-height="1011"
     inkscape:window-x="0"
     inkscape:window-y="32"
     inkscape:window-maximized="1"
     inkscape:current-layer="layer1"
     inkscape:showpageshadow="0"
     inkscape:deskcolor="#d1d1d1" />
  <defs
     id="defs2" />
  <g
     inkscape:label="Layer 1"
     inkscape:groupmode="layer"
     id="layer1"
     transform="translate(-74.595001,-38.392788)">
    <path
       id="path716"
       style="fill:#ffffff;fill-opacity:0.98039216;stroke-width:0.264583"
       d="M 140.74083 38.392788 A 66.145836 66.145836 0 0 0 74.595001 104.53862 A 66.145836 66.145836 0 0 0 140.74083 170.68445 A 66.145836 66.145836 0 0 0 206.88667 104.53862 A 66.145836 66.145836 0 0 0 140.74083 38.392788 z M 111.74209 68.056094 L 140.74083 97.05484 L 169.73958 68.056094 L 177.22336 75.539875 L 148.22462 104.53862 L 177.22336 133.53737 L 169.73958 141.02115 L 140.74083 112.0224 L 111.74209 141.02115 L 104.25831 133.53737 L 133.25705 104.53862 L 104.25831 75.539875 L 111.74209 68.056094 z " />
  </g>
</svg>
