<?xml version="1.0" encoding="UTF-8" standalone="no"?>
<!-- Created with Inkscape (http://www.inkscape.org/) -->

<svg
   width="291.04166mm"
   height="291.04166mm"
   viewBox="0 0 291.04165 291.04165"
   version="1.1"
   id="svg5"
   inkscape:version="1.1.2 (b8e25be8, 2022-02-05)"
   sodipodi:docname="Shield10Empty.svg"
   xmlns:inkscape="http://www.inkscape.org/namespaces/inkscape"
   xmlns:sodipodi="http://sodipodi.sourceforge.net/DTD/sodipodi-0.dtd"
   xmlns="http://www.w3.org/2000/svg"
   xmlns:svg="http://www.w3.org/2000/svg">
  <sodipodi:namedview
     id="namedview7"
     pagecolor="#505050"
     bordercolor="#ffffff"
     borderopacity="1"
     inkscape:pageshadow="0"
     inkscape:pageopacity="0"
     inkscape:pagecheckerboard="1"
     inkscape:document-units="mm"
     showgrid="false"
     inkscape:zoom="0.47584435"
     inkscape:cx="587.37694"
     inkscape:cy="587.37694"
     inkscape:window-width="1312"
     inkscape:window-height="855"
     inkscape:window-x="0"
     inkscape:window-y="23"
     inkscape:window-maximized="0"
     inkscape:current-layer="layer1"
     inkscape:snap-bbox="true"
     inkscape:bbox-paths="true"
     inkscape:bbox-nodes="true"
     inkscape:snap-bbox-midpoints="true"
     inkscape:snap-bbox-edge-midpoints="true"
     inkscape:snap-intersection-paths="true"
     inkscape:object-paths="true"
     inkscape:snap-smooth-nodes="true"
     showguides="false" />
  <defs
     id="defs2">
    <inkscape:perspective
       sodipodi:type="inkscape:persp3d"
       inkscape:vp_x="17.799274 : 251.35414 : 1"
       inkscape:vp_y="0 : 999.99993 : 0"
       inkscape:vp_z="536.15262 : 202.4445 : 1"
       inkscape:persp3d-origin="99.218744 : 119.06248 : 1"
       id="perspective1876" />
  </defs>
  <g
     inkscape:label="Layer 1"
     inkscape:groupmode="layer"
     id="layer1"
     transform="translate(52.916668,52.916668)">
    <path
       id="circle1830-3-7"
       style="fill:#858c91;fill-opacity:1;stroke-width:0.86307"
       d="M 475,112.5 A 362.50001,362.50001 0 0 0 112.5,475 362.50001,362.50001 0 0 0 475,837.5 362.50001,362.50001 0 0 0 787.05273,657.98242 c -3.48927,-2.01218 -6.7819,-3.89917 -10.27734,-5.91601 A 349.99999,349.99999 0 0 1 475,825 349.99999,349.99999 0 0 1 125,475 349.99999,349.99999 0 0 1 475,125 349.99999,349.99999 0 0 1 776.77734,297.93555 c 3.49525,-2.01673 6.78824,-3.90393 10.27735,-5.91602 A 362.50001,362.50001 0 0 0 475,112.5 Z"
       transform="matrix(0.26458333,0,0,0.26458333,-33.072918,-33.072918)" />
  </g>
</svg>
