[gd_scene load_steps=3 format=3 uid="uid://024nr3vf3o61"]

[ext_resource type="PackedScene" uid="uid://0swvqa3jrl8y" path="res://Scenes/Menu/Panels/MenuPanel.tscn" id="1"]
[ext_resource type="Script" path="res://Scripts/Menu/Panels/JoinedGamesMenuPanel.gd" id="2"]

[node name="JoinedGamesMenuPanel" instance=ExtResource("1")]
script = ExtResource("2")
BackMenu = "GamesMenuPanel"

[node name="HeaderLabel" parent="LargePanelHeader" index="1"]
text = "JOINED GAMES"

[node name="ScrollContainer" type="ScrollContainer" parent="." index="1"]
layout_mode = 1
anchors_preset = 15
anchor_right = 1.0
anchor_bottom = 1.0
offset_left = 20.0
offset_top = 50.0
offset_right = -20.0
grow_horizontal = 2
grow_vertical = 2

[node name="GameButtons" type="VBoxContainer" parent="ScrollContainer" index="0"]
layout_mode = 2
size_flags_horizontal = 3
size_flags_vertical = 3

[node name="Separator" type="Control" parent="ScrollContainer/GameButtons" index="0" groups=["Permanent"]]
layout_mode = 2

[node name="RefreshGamesButton" type="Button" parent="ScrollContainer/GameButtons" index="1" groups=["Permanent"]]
custom_minimum_size = Vector2(0, 50)
layout_mode = 2
focus_mode = 0
text = "Refresh"

[node name="Separator2" type="Control" parent="ScrollContainer/GameButtons" index="2" groups=["Permanent"]]
layout_mode = 2

[connection signal="visibility_changed" from="." to="." method="_on_JoinedGamesMenuPanel_visibility_changed"]
[connection signal="pressed" from="ScrollContainer/GameButtons/RefreshGamesButton" to="." method="_on_RefreshGamesButton_pressed"]

[editable path="LargePanelHeader"]
