[gd_scene load_steps=3 format=3 uid="uid://bvtmbg8056a4h"]

[ext_resource type="PackedScene" path="res://Scenes/Orders/Outposts/OutpostOrder.tscn" id="1_bu08q"]
[ext_resource type="Script" path="res://Scripts/Orders/Outposts/TransformOutpostOrder.gd" id="2_wxtoa"]

[node name="TransformOutpostOrder" instance=ExtResource("1_bu08q")]
script = ExtResource("2_wxtoa")
