[gd_scene load_steps=2 format=3 uid="uid://dwk7jx70gxoi"]

[ext_resource type="PackedScene" uid="uid://dd3bdtj2phbub" path="res://Scenes/Game/Panels/OutpostPanel.tscn" id="1"]

[node name="ObscuredOutpostPanel" instance=ExtResource("1")]

[node name="Info" parent="." index="1"]
visible = false

[node name="ObscuredLabel" type="Label" parent="." index="2"]
layout_mode = 0
offset_left = 10.0
offset_top = 35.0
offset_right = 300.0
offset_bottom = 140.0
theme_override_font_sizes/font_size = 10
text = "This outpost is outside of sonar range
No additional information is available"

[editable path="ItemHeader"]
