[gd_scene load_steps=5 format=2]

[ext_resource path="res://Scenes/InterfaceElements/Message.tscn" type="PackedScene" id=1]
[ext_resource path="res://Scripts/InterfaceElements/ChatButton.gd" type="Script" id=2]

[sub_resource type="StyleBoxFlat" id=3]
bg_color = Color( 0.74902, 0.737255, 0.721569, 1 )
border_width_top = 1
corner_radius_top_left = 10
corner_radius_top_right = 10
corner_radius_bottom_right = 10
corner_radius_bottom_left = 10

[sub_resource type="Theme" id=2]
Button/styles/disabled = SubResource( 3 )
Button/styles/focus = SubResource( 3 )
Button/styles/hover = SubResource( 3 )
Button/styles/normal = SubResource( 3 )
Button/styles/pressed = SubResource( 3 )

[node name="ChatButton" type="Button" groups=["ChatButton"]]
offset_right = 70.0
offset_bottom = 70.0
size_flags_horizontal = 3
theme = SubResource( 2 )
script = ExtResource( 2 )

[node name="Message" parent="." instance=ExtResource( 1 )]
anchor_right = 1.0
anchor_bottom = 1.0
offset_left = 10.0
offset_top = 10.0
offset_right = -10.0
offset_bottom = -10.0

[connection signal="pressed" from="." to="." method="_on_ChatButton_pressed"]

[editable path="Message"]
