[gd_scene load_steps=5 format=3 uid="uid://yu7a4kixgvjr"]

[ext_resource type="Texture2D" uid="uid://6s1f1p15sekg" path="res://Media/InterfaceElements/ExpandButton.svg" id="1"]
[ext_resource type="Script" path="res://Scripts/InterfaceElements/ExpandButton.gd" id="2"]

[sub_resource type="StyleBoxTexture" id="10"]
texture = ExtResource("1")
region_rect = Rect2(0, 0, 500, 500)

[sub_resource type="Theme" id="11"]
Button/styles/disabled = SubResource("10")
Button/styles/focus = SubResource("10")
Button/styles/hover = SubResource("10")
Button/styles/normal = SubResource("10")
Button/styles/pressed = SubResource("10")

[node name="ExpandButton" type="Button"]
anchors_preset = 5
anchor_left = 0.5
anchor_right = 0.5
offset_left = -12.5
offset_top = -20.0
offset_right = 12.5
offset_bottom = 5.0
theme = SubResource("11")
script = ExtResource("2")

[connection signal="button_down" from="." to="." method="_on_ExpandButton_button_down"]
[connection signal="visibility_changed" from="." to="." method="_on_ExpandButton_visibility_changed"]
