[gd_scene load_steps=2 format=3 uid="uid://bm7n8m07lwo7p"]

[ext_resource type="Script" path="res://Scripts/InterfaceElements/ScrollWheel.gd" id="1"]

[node name="ScrollWheel" type="Button"]
offset_right = 130.0
offset_bottom = 30.0
script = ExtResource("1")

[connection signal="button_down" from="." to="." method="_on_button_down"]
[connection signal="button_up" from="." to="." method="_on_button_up"]
[connection signal="draw" from="." to="." method="_on_draw"]
